{
  "defaultSeverity": "error",
  "jsRules": {
    "trailing-comma": false,
    "indent": [
      true,
      "tabs",
      2
    ],
    "object-literal-sort-keys": false,
    "member-ordering": false
  },
  "extends": [
    "tslint:recommended"
  ]
}